{
  "project_info": {
    "project_number": "674651260814",
    "project_id": "imageupload-b8d5f",
    "storage_bucket": "imageupload-b8d5f.appspot.com"
  },
  "client": [
    {
      "client_info": {
        "mobilesdk_app_id": "1:674651260814:android:8bb7b915f83f5f68c386df",
        "android_client_info": {
          "package_name": "com.demoImage"
        }
      },
      "oauth_client": [
        {
          "client_id": "674651260814-9jo01gvjerko0u6v6ie0k23ej77hbbgh.apps.googleusercontent.com",
          "client_type": 3
        }
      ],
      "api_key": [
        {
          "current_key": "AIzaSyBC6shDrzvcvr_8rJWe0QTl-cwqBldnDiw"
        }
      ],
      "services": {
        "appinvite_service": {
          "other_platform_oauth_client": [
            {
              "client_id": "674651260814-9jo01gvjerko0u6v6ie0k23ej77hbbgh.apps.googleusercontent.com",
              "client_type": 3
            }
          ]
        }
      }
    },
    {
      "client_info": {
        "mobilesdk_app_id": "1:674651260814:android:8c531a559c871b34c386df",
        "android_client_info": {
          "package_name": "com.medicalstore"
        }
      },
      "oauth_client": [
        {
          "client_id": "674651260814-9jo01gvjerko0u6v6ie0k23ej77hbbgh.apps.googleusercontent.com",
          "client_type": 3
        }
      ],
      "api_key": [
        {
          "current_key": "AIzaSyBC6shDrzvcvr_8rJWe0QTl-cwqBldnDiw"
        }
      ],
      "services": {
        "appinvite_service": {
          "other_platform_oauth_client": [
            {
              "client_id": "674651260814-9jo01gvjerko0u6v6ie0k23ej77hbbgh.apps.googleusercontent.com",
              "client_type": 3
            }
          ]
        }
      }
    }
  ],
  "configuration_version": "1"
}